<svg xmlns="http://www.w3.org/2000/svg" width="154" height="51.893" viewBox="0 0 154 51.893">
  <defs>
    <style>
      .cls-1, .cls-2 {
        fill: #444;
      }

      .cls-1 {
        fill-rule: evenodd;
      }

      .cls-2 {
        font-size: 16px;
        font-family: Montserrat-SemiBold, Montserrat;
        font-weight: 600;
      }
    </style>
  </defs>
  <g id="Group_788" data-name="Group 788" transform="translate(-277 -9.054)">
    <g id="Test-2" transform="translate(143.899 -171.175)">
      <path id="Path_218" data-name="Path 218" class="cls-1" d="M152.463,228.167l.024.016c-1.745,1.152-2.86,2.033-2.86,2.033a.623.623,0,0,0,.774.976s1.357-1.081,3.407-2.4c6.924,3.086,11.994,3.774,15.286,3.082,2.527-.532,4.07-1.864,4.711-3.568a3.851,3.851,0,0,0-.035-3.343,4.254,4.254,0,0,0-2.747-1.856,17.842,17.842,0,0,0-6.543-.154c-3.678.453-7.788,2.592-10.75,4.432-1.52-.715-8.351-3.892-10.893-4.424-7.156-1.5-10.968,1.114-9.376,5.344a5.533,5.533,0,0,0,4.284,3.324c2.931.652,7.059.014,11.375-2.025a.623.623,0,0,0-.532-1.126c-4.015,1.9-7.846,2.542-10.573,1.935a4.337,4.337,0,0,1-3.389-2.547,2.868,2.868,0,0,1-.023-2.407,3.13,3.13,0,0,1,2.013-1.39,12.887,12.887,0,0,1,5.965.11C144.764,224.638,150.186,227.1,152.463,228.167ZM155.09,228c6.185,2.652,10.738,3.293,13.747,2.661a4.772,4.772,0,0,0,3.8-2.788,2.675,2.675,0,0,0,.046-2.292,3.06,3.06,0,0,0-1.988-1.266,16.626,16.626,0,0,0-6.065-.12C161.41,224.587,157.845,226.342,155.09,228Zm-6.332-21.437s1.948,9.264-1.876,15.579a.623.623,0,1,0,1.065.645c4.045-6.682,2.03-16.478,2.03-16.478a.623.623,0,1,0-1.219.253Zm8.534-.253s-2.016,9.8,2.03,16.478a.623.623,0,1,0,1.065-.645c-3.823-6.316-1.876-15.579-1.876-15.579a.623.623,0,1,0-1.219-.253Zm-2.8-4.137.042-.05c1.953-2.31,3.276-5.613,3.276-7.642,0-3.777-4.01-4.016-4.01-4.016a2.064,2.064,0,0,1-.2,0s-4.01.239-4.01,4.016a14.019,14.019,0,0,0,3.158,7.635l.038.046a4.534,4.534,0,0,1-3,1.443,7.162,7.162,0,0,1-4.2-1.875,37.881,37.881,0,0,1-5.39-5.773c-.874-1.076-1.082-2.045-.726-2.785a2.68,2.68,0,0,1,2.318-1.278c2.518-.207,5.368-.266,8.539-2.563a6.517,6.517,0,0,0,2.342-4.146,14.853,14.853,0,0,0,.119-4.42.623.623,0,1,0-1.232.18,13.468,13.468,0,0,1-.109,4,5.27,5.27,0,0,1-1.851,3.376c-2.933,2.125-5.581,2.139-7.91,2.33a3.9,3.9,0,0,0-3.338,1.979c-.52,1.081-.394,2.538.882,4.11a39.244,39.244,0,0,0,5.581,5.962,8.4,8.4,0,0,0,4.978,2.146,5.825,5.825,0,0,0,3.841-1.782,5.681,5.681,0,0,0,3.8,1.782,8.4,8.4,0,0,0,4.978-2.146,39.243,39.243,0,0,0,5.581-5.962c1.276-1.571,1.4-3.029.881-4.11a3.9,3.9,0,0,0-3.338-1.979c-2.329-.191-4.977-.205-7.91-2.33a5.27,5.27,0,0,1-1.851-3.376,13.47,13.47,0,0,1-.109-4,.623.623,0,1,0-1.232-.18,14.847,14.847,0,0,0,.119,4.42,6.517,6.517,0,0,0,2.342,4.146c3.171,2.3,6.021,2.356,8.539,2.563a2.681,2.681,0,0,1,2.318,1.278c.356.74.147,1.709-.726,2.785a37.882,37.882,0,0,1-5.39,5.773,7.162,7.162,0,0,1-4.2,1.875A4.393,4.393,0,0,1,154.489,202.168ZM153.7,191.7l-.031,0s-2.832.135-2.832,2.772a12.6,12.6,0,0,0,2.808,6.762,12.465,12.465,0,0,0,2.918-6.762c0-2.638-2.832-2.772-2.832-2.772Z"/>
    </g>
    <text id="SUROWO.MI" class="cls-2" transform="translate(328 41)"><tspan x="0" y="0">SUROWO.MI</tspan></text>
  </g>
</svg>
